<svg id="Laag_1" data-name="Laag 1" xmlns="http://www.w3.org/2000/svg" viewBox="0 0 258.2 44.1"><defs>


        <style>
        .panel-ui{
        stroke:#FF0000;
        stroke-width:2;
        rx:0;
        fill:grey;
}
.button{
        stroke:#999999;
        stroke-width:2;
        rx:15;
        fill:green;
}
    .button-ok-inner {fill:#006C3B}
    .button-ok-outer {fill:#77C06C}
    .button-not-ok{
        stroke:#800000;
        stroke-width:10;
        fill:transparent;
    }
    /*can be removed*/
.thought-bubble-back{
    stroke-linejoin:round;stroke:#cccccc;stroke-linecap:round;stroke-width:2;fill:#cccccc
}
.thought-bubble-front{
    stroke-linejoin:round;stroke:#000000;stroke-linecap:round;stroke-width:2;fill:#ffffff
}
/*end can be removed*/

.speak-bubble {
    fill: #ffffff;
    fill-opacity: 1;
    fill-rule: evenodd;
    stroke: #000000;
    stroke-width: 5.8824821;
    stroke-linecap: butt;
    stroke-linejoin: round;
    stroke-miterlimit: 4.0000000;
    stroke-dasharray: none;
    stroke-opacity: 1.0000000;
}

.start-button1{fill:#fff;}.start-button2{fill:#575756;}
.thought{fill:#9c3354;stroke:#fff;stroke-miterlimit:10;stroke-width:1.99px;}
.speak1{fill:#fff;}.speak2{fill:none;stroke:#e83361;stroke-miterlimit:10;stroke-width:2.07px;}
.dialog-ok{fill:white;}


 

speak2{stroke:#9c9d9c}
        </style>
        

</defs>
    <g transform="scale(8,9)">
        <path class="speak1" d="M422.4,433.1c1.6,0,1.8-.6.5-1.5l-15.2-10.1a5.6,5.6,0,0,1-2.3-4.3v-15a2.8,2.8,0,0,0-2.8-2.7H170.3a2.7,2.7,0,0,0-2.7,2.7v36.6a2.7,2.7,0,0,0,2.7,2.7H402.6a2.8,2.8,0,0,0,2.8-2.7v-2.9a2.8,2.8,0,0,1,2.7-2.8Z" transform="translate(-166.5 -398.4)"/><path class="speak2" d="M422.4,433.1c1.6,0,1.8-.6.5-1.5l-15.2-10.1a5.6,5.6,0,0,1-2.3-4.3v-15a2.8,2.8,0,0,0-2.8-2.7H170.3a2.7,2.7,0,0,0-2.7,2.7v36.6a2.7,2.7,0,0,0,2.7,2.7H402.6a2.8,2.8,0,0,0,2.8-2.7v-2.9a2.8,2.8,0,0,1,2.7-2.8Z" transform="translate(-166.5 -398.4)"/></g></svg>