<svg id="Laag_1" data-name="Laag 1" xmlns="http://www.w3.org/2000/svg" viewBox="0 0 111 44.1"><defs>
        


        <style>
        .panel-ui{
        stroke:#FF0000;
        stroke-width:2;
        rx:0;
        fill:grey;
}
.button{
        stroke:#999999;
        stroke-width:2;
        rx:15;
        fill:green;
}
    .button-ok-inner {fill:#006C3B}
    .button-ok-outer {fill:#77C06C}
    .button-not-ok{
        stroke:#800000;
        stroke-width:10;
        fill:transparent;
    }
    /*can be removed*/
.thought-bubble-back{
    stroke-linejoin:round;stroke:#cccccc;stroke-linecap:round;stroke-width:2;fill:#cccccc
}
.thought-bubble-front{
    stroke-linejoin:round;stroke:#000000;stroke-linecap:round;stroke-width:2;fill:#ffffff
}
/*end can be removed*/

.speak-bubble {
    fill: #ffffff;
    fill-opacity: 1;
    fill-rule: evenodd;
    stroke: #000000;
    stroke-width: 5.8824821;
    stroke-linecap: butt;
    stroke-linejoin: round;
    stroke-miterlimit: 4.0000000;
    stroke-dasharray: none;
    stroke-opacity: 1.0000000;
}

.start-button1{fill:#fff;}.start-button2{fill:#575756;}
.thought{fill:#9c3354;stroke:#fff;stroke-miterlimit:10;stroke-width:1.99px;}
.speak1{fill:#fff;}.speak2{fill:none;stroke:#e83361;stroke-miterlimit:10;stroke-width:2.07px;}
.dialog-ok{fill:white;}


 

speak2{stroke:#9c9d9c}
        </style>
        

</defs>
    <g transform="scale(10,12)">
        <path class="thought" d="M257.9,421.3v-5.9a15.9,15.9,0,0,1,15.9-15.9h62.4a15.9,15.9,0,0,1,15.9,15.9v10.2a15.9,15.9,0,0,1-15.9,15.9H273.8a15.9,15.9,0,0,1-13.9-8.3l-1.5.2a6.1,6.1,0,0,1-.5-12.1Z" transform="translate(-242.1 -398.5)"/><path class="thought" d="M245.8,432a2.7,2.7,0,1,1-2.7,2.7A2.7,2.7,0,0,1,245.8,432Z" transform="translate(-242.1 -398.5)"/></g></svg>