<?xml version="1.0" encoding="UTF-8" standalone="no"?>
<!-- Created with Inkscape (http://www.inkscape.org/) -->

<svg
   xmlns:dc="http://purl.org/dc/elements/1.1/"
   xmlns:cc="http://creativecommons.org/ns#"
   xmlns:rdf="http://www.w3.org/1999/02/22-rdf-syntax-ns#"
   xmlns:svg="http://www.w3.org/2000/svg"
   xmlns="http://www.w3.org/2000/svg"
   xmlns:sodipodi="http://sodipodi.sourceforge.net/DTD/sodipodi-0.dtd"
   xmlns:inkscape="http://www.inkscape.org/namespaces/inkscape"
   id="svg6100"
   sodipodi:docname="SpeechThought.svg"
   viewBox="0 0 1000 1000"
   version="1.1"
   inkscape:version="0.92.3 (2405546, 2018-03-11)">
  <defs
     id="defs16" />
  <title
     id="title6144">bulle</title>
  <style
     id="style3">
      .thought-bubble-back{
      stroke-linejoin:round;stroke:#cccccc;stroke-linecap:round;stroke-width:2;fill:#cccccc
      }
      .thought-bubble-front{
      stroke-linejoin:round;stroke:#000000;stroke-linecap:round;stroke-width:2;fill:#ffffff
      }
  </style>
  <sodipodi:namedview
     id="base"
     bordercolor="#666666"
     inkscape:pageshadow="2"
     inkscape:window-y="0"
     fit-margin-left="0"
     pagecolor="#ffffff"
     inkscape:window-height="1015"
     inkscape:window-maximized="1"
     inkscape:zoom="0.087500001"
     inkscape:window-x="0"
     showgrid="false"
     borderopacity="1.0"
     inkscape:current-layer="layer1"
     inkscape:cx="-909.99407"
     inkscape:cy="323.42609"
     fit-margin-top="0"
     fit-margin-right="0"
     fit-margin-bottom="0"
     inkscape:window-width="1920"
     inkscape:pageopacity="0.0"
     inkscape:document-units="px" />
  <g
     id="layer1"
     inkscape:label="Calque 1"
     inkscape:groupmode="layer"
     transform="translate(-301.62 -460.81) scale(6,6)">
    <path
       id="path6064"
       class="thought-bubble-back"
       d="m 142.07579,180.7511 c -0.0421,3.9189 3.2186,7.1359 6.7618,7.737 3.7844,0.77575 8.1594,-1.1188 9.7143,-4.964 1.1772,-2.8314 0.32113,-6.3059 -1.8923,-8.2986 -3.5294,-3.3852 -9.6472,-3.1333 -12.8,0.68979 -1.1086,1.3037 -1.7801,3.0152 -1.7838,4.771"
       style="fill:#cccccc;stroke:#cccccc;stroke-width:2;stroke-linecap:round;stroke-linejoin:round"
       inkscape:connector-curvature="0" />
    <path
       id="path6053"
       class="thought-bubble-front"
       style="fill:#ffffff;stroke:#000000;stroke-width:2;stroke-linecap:round;stroke-linejoin:round"
       inkscape:connector-curvature="0"
       d="m 140.42579,177.4011 c -0.0421,3.9189 3.2186,7.1359 6.7618,7.737 3.7844,0.77575 8.1594,-1.1188 9.7143,-4.964 1.1772,-2.8313 0.32113,-6.3059 -1.8923,-8.2986 -3.5294,-3.3852 -9.6472,-3.1333 -12.8,0.68979 -1.1086,1.3037 -1.7801,3.0152 -1.7838,4.771" />
    <path
       id="path6066"
       class="thought-bubble-back"
       d="m 161.30579,196.5011 c -0.0501,2.8537 2.3334,5.39901 5.1255,5.77851 2.7999,0.4807 5.8829,-1.1295 6.8245,-3.86071 0.92041,-2.4169 -0.1005,-5.325 -2.2699,-6.7044 -2.384,-1.6416 -5.8886,-1.3699 -7.9316,0.70305 -1.0866,1.0469 -1.7547,2.5202 -1.7484,4.0355"
       inkscape:connector-curvature="0"
       style="fill:#cccccc;stroke:#cccccc;stroke-width:2;stroke-linecap:round;stroke-linejoin:round" />
    <path
       id="path6055"
       class="thought-bubble-front"
       inkscape:connector-curvature="0"
       d="m 159.80579,194.0011 c -0.0501,2.8537 2.3334,5.399 5.1255,5.7785 2.7999,0.48071 5.8829,-1.1295 6.8245,-3.8607 0.92041,-2.4169 -0.1005,-5.325 -2.2699,-6.7044 -2.384,-1.6416 -5.8886,-1.3699 -7.9316,0.70305 -1.0866,1.0469 -1.7547,2.5202 -1.7484,4.0355"
       style="fill:#ffffff;stroke:#000000;stroke-width:2;stroke-linecap:round;stroke-linejoin:round" />
    <path
       id="path6062"
       class="thought-bubble-back"
       d="m 114.37579,94.541097 c 8.0639,0 15.223,3.5673 19.776,9.087303 3.0025,-2.8728 6.9985,-4.622903 11.372,-4.622903 6.9499,0 12.897,4.405203 15.494,10.719003 10.212,0.61452 18.303,8.5222 18.303,18.197 0,7.1313 -4.3851,13.293 -10.783,16.294 0.0668,0.64258 0.11326,1.2886 0.11326,1.9489 0,10.322 -8.3709,18.696 -18.688,18.696 -3.382,0 -6.5512,-0.92057 -9.2876,-2.4928 -4.1566,5.7998 -11.203,9.6085 -19.187,9.6085 -10.007,0 -18.524,-6.0059 -21.745998,-14.39 -2.1153,0.68143 -4.3692,1.0424 -6.7052,1.0424 -12.283,0 -22.245,-10.173 -22.245,-22.707 v -0.18129 c 0.0914,-11.371 8.3686,-20.727 19.096,-22.276 2.1356,-10.774 12.289998,-18.922003 24.486998,-18.922003 z"
       inkscape:connector-curvature="0"
       style="fill:#cccccc;stroke:#cccccc;stroke-width:2;stroke-linecap:round;stroke-linejoin:round" />
    <path
       id="path6057"
       class="thought-bubble-front"
       inkscape:connector-curvature="0"
       d="m 113.87579,89.541097 c 8.0639,0 15.223,3.5673 19.776,9.0873 3.0025,-2.8728 6.9985,-4.6229 11.372,-4.6229 6.9499,0 12.897,4.4052 15.494,10.719003 10.212,0.61452 18.303,8.5222 18.303,18.197 0,7.1313 -4.3851,13.293 -10.783,16.294 0.0668,0.64258 0.11326,1.2886 0.11326,1.9489 0,10.322 -8.3709,18.696 -18.688,18.696 -3.382,0 -6.5512,-0.92057 -9.2876,-2.4928 -4.1566,5.7998 -11.203,9.6085 -19.187,9.6085 -10.007,0 -18.524,-6.0059 -21.745998,-14.39 -2.1153,0.68143 -4.3692,1.0424 -6.7052,1.0424 -12.283,0 -22.245,-10.173 -22.245,-22.707 v -0.18129 c 0.0914,-11.371 8.3686,-20.727 19.096,-22.276 2.1356,-10.774003 12.289998,-18.922003 24.486998,-18.922003 z"
       style="fill:#ffffff;stroke:#000000;stroke-width:2;stroke-linecap:round;stroke-linejoin:round" />
  </g>
  <metadata
     id="metadata13">
    <rdf:RDF>
      <cc:Work>
        <dc:format>image/svg+xml</dc:format>
        <dc:type
           rdf:resource="http://purl.org/dc/dcmitype/StillImage" />
        <cc:license
           rdf:resource="http://creativecommons.org/licenses/publicdomain/" />
        <dc:publisher>
          <cc:Agent
             rdf:about="http://openclipart.org/">
            <dc:title>Openclipart</dc:title>
          </cc:Agent>
        </dc:publisher>
        <dc:title>Bulle / bubble</dc:title>
        <dc:date>2011-03-06T19:39:23</dc:date>
        <dc:description>Simple thought bubble with two trailing bubbles.</dc:description>
        <dc:source>https://openclipart.org/detail/125887/bulle--bubble-by-lmproulx</dc:source>
        <dc:creator>
          <cc:Agent>
            <dc:title>lmproulx</dc:title>
          </cc:Agent>
        </dc:creator>
        <dc:subject>
          <rdf:Bag>
            <rdf:li>bubble</rdf:li>
            <rdf:li>cartoon</rdf:li>
            <rdf:li>cloud</rdf:li>
            <rdf:li>comic</rdf:li>
            <rdf:li>dream</rdf:li>
            <rdf:li>line art</rdf:li>
            <rdf:li>round</rdf:li>
            <rdf:li>shadow</rdf:li>
            <rdf:li>think</rdf:li>
            <rdf:li>thinking</rdf:li>
            <rdf:li>thought</rdf:li>
            <rdf:li>white</rdf:li>
          </rdf:Bag>
        </dc:subject>
      </cc:Work>
      <cc:License
         rdf:about="http://creativecommons.org/licenses/publicdomain/">
        <cc:permits
           rdf:resource="http://creativecommons.org/ns#Reproduction" />
        <cc:permits
           rdf:resource="http://creativecommons.org/ns#Distribution" />
        <cc:permits
           rdf:resource="http://creativecommons.org/ns#DerivativeWorks" />
      </cc:License>
    </rdf:RDF>
  </metadata>
</svg>
