<?xml version="1.0" encoding="UTF-8" standalone="no"?>
<!DOCTYPE svg  PUBLIC '-//W3C//DTD SVG 1.0//EN'  'http://www.w3.org/TR/2001/REC-SVG-20010904/DTD/svg10.dtd'>
<!-- Creator: CorelDRAW -->
<svg style="shape-rendering:geometricPrecision;text-rendering:geometricPrecision;image-rendering:optimizeQuality" xmlns="http://www.w3.org/2000/svg" xmlns:odm="http://product.corel.com/CGS/11/cddns/" xml:space="preserve" fill-rule="evenodd" height="8.2677in" width="8.2677in" xmlns:corel-charset="http://product.corel.com/CGS/11/cddns/" viewBox="0 0 8267.72 8267.72">
 <defs>
  














<style>
.panel-ui{
        stroke:#FF0000;
        stroke-width:2;
        rx:0;
        fill:grey;
}
.button{
        stroke:#999999;
        stroke-width:2;
        rx:15;
        fill:green;
}
    .button-ok-inner {fill:#006C3B}
    .button-ok-outer {fill:#77C06C}
    .button-not-ok{
        stroke:#800000;
        stroke-width:10;
        fill:transparent;
    }
    /*can be removed*/
.thought-bubble-back{
    stroke-linejoin:round;stroke:#cccccc;stroke-linecap:round;stroke-width:2;fill:#cccccc
}
.thought-bubble-front{
    stroke-linejoin:round;stroke:#000000;stroke-linecap:round;stroke-width:2;fill:#ffffff
}
/*end can be removed*/

.speak-bubble {
    fill: #ffffff;
    fill-opacity: 1;
    fill-rule: evenodd;
    stroke: #000000;
    stroke-width: 5.8824821;
    stroke-linecap: butt;
    stroke-linejoin: round;
    stroke-miterlimit: 4.0000000;
    stroke-dasharray: none;
    stroke-opacity: 1.0000000;
}

.start-button1{fill:#fff;}.start-button2{fill:#575756;}
.thought{fill:#9c3354;stroke:#fff;stroke-miterlimit:10;stroke-width:1.99px;}
.speak1{fill:#fff;}.speak2{fill:none;stroke:#e83361;stroke-miterlimit:10;stroke-width:2.07px;}
.dialog-ok{fill:white;}


 

</style>















 </defs>
 <g id="Symbol-Rahmen2">
  <circle cx="30" cy="30" r="29" class="button-not-ok"  />
 </g>
</svg>