{
    "width": 1500,
    "height": 1350,
    "language": "nl",
    "roles": [
        {
            "role": "IKH PmK",
            "color": "red",
            "name": "Persoon met Kanker"
        },
        {
            "role": "IKH Werkgever",
            "color": "chartreuse",
            "name": "Werkgever"
        },
        {
            "role": "IKH Bedrijfsarts",
            "color": "yellow",
            "name": "Bedrijfsarts"
        },
        {
            "role": "IKH Collega's",
            "color": "blue",
            "name": "Collega's"
        },
        {
            "role": "IKH HR adviseur",
            "color": "grey",
            "name": "HR adviseur"
        },
        {
            "role": "IKH Oncoloog",
            "color": "lightblue",
            "name": "Oncoloog"
        },
        {
            "role": "IKH Verzuimcoach",
            "color": "lightred",
            "name": "Verzuimcoach"
        }
    ],
    "zones": [
        {
            "zone": "Fase 1 - Diagnose",
            "zone-code": "IKH Fase 1",
            "color": "red"
        },
        {
            "zone": "Fase 2 - Behandeling",
            "zone-code": "IKH Fase 2",
            "color": "blue"
        },
        {
            "zone": "Fase 3 - Terug naar werk",
            "zone-code": "IKH Fase 3",
            "color": "purple"
        }
    ],
    "nodes": [
        {
            "id": "IKH_S13",
            "name": "Gesprek bedrijfsarts eerste jaar ziek (S13)",
            "summary": "De bedrijfsarts geeft opnieuw een oordeel over jouw belastbaarheid. Dit is een zwaarwegend advies aan je werkgever en bepaalt hoe jouw re-integratieplan in het tweede ziektejaar eruit gaat zien.",
            "color": "white",
            "href": "IKH S13",
            "parent": "IKH_S13",
            "children": 2,
            "endnode": "true",
            "zone": "IKH Fase 3",
            "img": "IKH-SituationsIKH_TS1_1.dot.png",
            "start": [
                7,
                5
            ],
            "height": 28,
            "width": 200
        },
        {
            "id": "IKH_Bedrijfsarts_S13",
            "name": "Bedrijfsarts in Gesprek bedrijfsarts eerste jaar ziek (Bedrijfsarts S13)",
            "color": "yellow",
            "href": "IKH Bedrijfsarts S13",
            "parent": "IKH_S13",
            "endnode": "false",
            "img": "IKH-SituationsIKH_TS1_1.dot.png",
            "role": "IKH Bedrijfsarts",
            "start": [
                5,
                33
            ],
            "height": 28,
            "width": 200
        },
        {
            "id": "IKH_PmK_S13",
            "name": "Persoon met Kanker in Gesprek bedrijfsarts eerste jaar ziek (PmK S13)",
            "color": "red",
            "href": "IKH PmK S13",
            "parent": "IKH_S13",
            "endnode": "false",
            "img": "IKH-SituationsIKH_TS1_1.dot.png",
            "role": "IKH PmK",
            "start": [
                5,
                61
            ],
            "height": 28,
            "width": 200
        },
        {
            "id": "IKH_S16",
            "name": "WIA keuring (S16)",
            "summary": "Als terugkeer in je functie niet meer mogelijk is kan een WIA keuring worden aangevraagd. De WIA is een financi\u00eble verzekering tegen inkomensverlies.",
            "color": "white",
            "href": "IKH S16",
            "parent": "IKH_S16",
            "children": 2,
            "endnode": "true",
            "zone": "IKH Fase 3",
            "img": "IKH-SituationsIKH_TS1_1.dot.png",
            "start": [
                4,
                5
            ],
            "height": 28,
            "width": 200
        },
        {
            "id": "IKH_Bedrijfsarts_S16",
            "name": "Bedrijfsarts in Twee jaar ziek - WIA keuring (Bedrijfsarts S16)",
            "color": "yellow",
            "href": "IKH Bedrijfsarts S16",
            "parent": "IKH_S16",
            "endnode": "true",
            "img": "IKH-SituationsIKH_TS1_1.dot.png",
            "role": "IKH Bedrijfsarts",
            "start": [
                5,
                117
            ],
            "height": 28,
            "width": 200
        },
        {
            "id": "IKH_PmK_S16",
            "name": "Persoon met Kanker in Twee jaar ziek - WIA keuring (PmK S16)",
            "color": "red",
            "href": "IKH PmK S16",
            "parent": "IKH_S16",
            "endnode": "false",
            "img": "IKH-SituationsIKH_TS1_1.dot.png",
            "role": "IKH PmK",
            "start": [
                5,
                145
            ],
            "height": 28,
            "width": 200
        },
        {
            "id": "IKH_S6",
            "name": "Gesprek bedrijfsarts - arboarts (S6)",
            "summary": "Zes weken nadat je je hebt ziek gemeld  beoordeelt de bedrijfsarts jouw situatie en geeft hij advies aan je werkgever over jouw mogelijkheden om weer aan het werk te gaan.",
            "color": "white",
            "href": "IKH S6",
            "parent": "IKH_S6",
            "children": 2,
            "endnode": "true",
            "zone": "IKH Fase 2",
            "img": "IKH-SituationsIKH_TS1_1.dot.png",
            "start": [
                4,
                1
            ],
            "height": 28,
            "width": 200
        },
        {
            "id": "IKH_Bedrijfsarts_S6",
            "name": "Bedrijfsarts in Gesprek bedrijfsarts - arboarts (Bedrijfsarts S6)",
            "color": "yellow",
            "href": "IKH Bedrijfsarts S6",
            "parent": "IKH_S6",
            "endnode": "true",
            "img": "IKH-SituationsIKH_TS1_1.dot.png",
            "role": "IKH Bedrijfsarts",
            "start": [
                5,
                201
            ],
            "height": 28,
            "width": 200
        },
        {
            "id": "IKH_PmK_S6",
            "name": "Persoon met Kanker in Gesprek bedrijfsarts - arboarts (PmK S6)",
            "color": "red",
            "href": "IKH PmK S6",
            "parent": "IKH_S6",
            "endnode": "false",
            "img": "IKH-SituationsIKH_TS1_1.dot.png",
            "role": "IKH PmK",
            "start": [
                5,
                229
            ],
            "height": 28,
            "width": 200
        },
        {
            "id": "IKH_S10",
            "name": "Deels terug aan het werk (S10)",
            "summary": "De terugkeer naar werk verloopt niet volgens een continu stijgende lijn, maar kent ups en downs.",
            "color": "white",
            "href": "IKH S10",
            "parent": "IKH_S10",
            "children": 2,
            "endnode": "true",
            "zone": "IKH Fase 3",
            "img": "IKH-SituationsIKH_TS1_1.dot.png",
            "start": [
                7,
                3
            ],
            "height": 28,
            "width": 200
        },
        {
            "id": "IKH_Collega's_S10",
            "name": "Collega's in Deels terug naar het werk (Collega's S10)",
            "color": "blue",
            "href": "IKH Collega's S10",
            "parent": "IKH_S10",
            "endnode": "false",
            "img": "IKH-SituationsIKH_TS1_1.dot.png",
            "role": "IKH Collega's",
            "start": [
                5,
                285
            ],
            "height": 28,
            "width": 200
        },
        {
            "id": "IKH_PmK_S10",
            "name": "Persoon met Kanker in Deels terug naar het werk (PmK S10)",
            "color": "red",
            "href": "IKH PmK S10",
            "parent": "IKH_S10",
            "endnode": "false",
            "img": "IKH-SituationsIKH_TS1_1.dot.png",
            "role": "IKH PmK",
            "start": [
                5,
                313
            ],
            "height": 28,
            "width": 200
        },
        {
            "id": "IKH_S17",
            "name": "Afsluiting re-integratietraject (S17)",
            "summary": "In de praktijk bestaan er veel verschillende manieren waarop een re-integratietraject kan worden afgesloten.",
            "color": "white",
            "href": "IKH S17",
            "parent": "IKH_S17",
            "children": 2,
            "endnode": "true",
            "zone": "IKH Fase 3",
            "img": "IKH-SituationsIKH_TS1_1.dot.png",
            "start": [
                3,
                5
            ],
            "height": 28,
            "width": 200
        },
        {
            "id": "IKH_Collega's_S17",
            "name": "Collega's in Na het traject (Collega's S17)",
            "color": "blue",
            "href": "IKH Collega's S17",
            "parent": "IKH_S17",
            "endnode": "true",
            "img": "IKH-SituationsIKH_TS1_1.dot.png",
            "role": "IKH Collega's",
            "start": [
                5,
                369
            ],
            "height": 28,
            "width": 200
        },
        {
            "id": "IKH_PmK_S17",
            "name": "Persoon met Kanker in Na het traject (PmK S17)",
            "color": "red",
            "href": "IKH PmK S17",
            "parent": "IKH_S17",
            "endnode": "true",
            "img": "IKH-SituationsIKH_TS1_1.dot.png",
            "role": "IKH PmK",
            "start": [
                5,
                397
            ],
            "height": 28,
            "width": 200
        },
        {
            "id": "IKH_S2",
            "name": "Collega's informeren",
            "summary": "Naast het delen van de diagnose met je werkgever zullen ook je (directe) collega\u2019s ge\u00efnformeerd moeten worden. Het is aan jou om te beslissen hoe je dit het liefst wilt doen en of en hoe je hen wilt betrekken. Breng je je collega\u2019s zelf op de hoogte of beslis je dit door je leidinggevende te laten doen?",
            "color": "white",
            "href": "IKH S2",
            "parent": "IKH_S2",
            "children": 2,
            "endnode": "true",
            "zone": "IKH Fase 1",
            "img": "IKH-SituationsIKH_TS1_1.dot.png",
            "start": [
                3,
                2
            ],
            "height": 28,
            "width": 200
        },
        {
            "id": "IKH_Collega's_S2",
            "name": "Collega's in Collega's informeren (Collega's S2)",
            "color": "blue",
            "href": "IKH Collega's S2",
            "parent": "IKH_S2",
            "endnode": "true",
            "img": "IKH-SituationsIKH_TS1_1.dot.png",
            "role": "IKH Collega's",
            "start": [
                5,
                453
            ],
            "height": 28,
            "width": 200
        },
        {
            "id": "IKH_PmK_S2",
            "name": "Persoon met Kanker in Collega's informeren (PmK S2)",
            "color": "red",
            "href": "IKH PmK S2",
            "parent": "IKH_S2",
            "endnode": "false",
            "img": "IKH-SituationsIKH_TS1_1.dot.png",
            "role": "IKH PmK",
            "start": [
                5,
                481
            ],
            "height": 28,
            "width": 200
        },
        {
            "id": "IKH_S8",
            "name": "Einde behandeling (S8)",
            "summary": "Als de behandeling is afgerond betekent dit niet dat je je weer de oude voelt. De kanker heeft nog steeds een grote impact op je leven wanneer de behandeling is afgerond.",
            "color": "white",
            "href": "IKH S8",
            "parent": "IKH_S8",
            "children": 2,
            "endnode": "true",
            "zone": "IKH Fase 2",
            "img": "IKH-SituationsIKH_TS1_1.dot.png",
            "start": [
                6,
                3
            ],
            "height": 28,
            "width": 200
        },
        {
            "id": "IKH_Collega's_S8",
            "name": "Collega's in Einde behandeling (Collega's S8)",
            "color": "blue",
            "href": "IKH Collega's S8",
            "parent": "IKH_S8",
            "endnode": "false",
            "img": "IKH-SituationsIKH_TS1_1.dot.png",
            "role": "IKH Collega's",
            "start": [
                5,
                537
            ],
            "height": 28,
            "width": 200
        },
        {
            "id": "IKH_PmK_S8",
            "name": "Persoon met Kanker in Einde behandeling (PmK S8)",
            "color": "red",
            "href": "IKH PmK S8",
            "parent": "IKH_S8",
            "endnode": "false",
            "img": "IKH-SituationsIKH_TS1_1.dot.png",
            "role": "IKH PmK",
            "start": [
                5,
                565
            ],
            "height": 28,
            "width": 200
        },
        {
            "id": "IKH_S9",
            "name": "Terug naar eigen functie (S9)",
            "summary": "Weer aan het werk gaan is niet hetzelfde als terugkeren naar jouw eigen functie. De ene functie is makkelijker aan te passen aan iemands persoonlijke situatie dan de andere.",
            "color": "white",
            "href": "IKH S9",
            "parent": "IKH_S9",
            "children": 2,
            "endnode": "true",
            "zone": "IKH Fase 3",
            "img": "IKH-SituationsIKH_TS1_1.dot.png",
            "start": [
                8,
                4
            ],
            "height": 28,
            "width": 200
        },
        {
            "id": "IKH_Collega's_S9",
            "name": "Collega's in Terug naar het werk (Collega's S9)",
            "color": "blue",
            "href": "IKH Collega's S9",
            "parent": "IKH_S9",
            "endnode": "false",
            "img": "IKH-SituationsIKH_TS1_1.dot.png",
            "role": "IKH Collega's",
            "start": [
                5,
                621
            ],
            "height": 28,
            "width": 200
        },
        {
            "id": "IKH_PmK_S9",
            "name": "Persoon met Kanker in Terug naar het werk (PmK S9)",
            "color": "red",
            "href": "IKH PmK S9",
            "parent": "IKH_S9",
            "endnode": "false",
            "img": "IKH-SituationsIKH_TS1_1.dot.png",
            "role": "IKH PmK",
            "start": [
                5,
                649
            ],
            "height": 28,
            "width": 200
        },
        {
            "id": "IKH_S1",
            "name": "Delen diagnose",
            "summary": "Je hebt de diagnose kanker gekregen. Naast je familie en vrienden zul je ook je werkgever op de hoogte moeten brengen. Wanneer doe je dat en aan wie wil je het wel of niet vertellen?",
            "color": "white",
            "href": "IKH S1",
            "parent": "IKH_S1",
            "children": 2,
            "endnode": "true",
            "zone": "IKH Fase 1",
            "img": "IKH-SituationsIKH_TS1_1.dot.png",
            "start": [
                1,
                2
            ],
            "height": 28,
            "width": 200
        },
        {
            "id": "IKH_PmK_S1",
            "name": "Persoon met Kanker in Diagnose situatie (PmK S1)",
            "color": "red",
            "href": "IKH PmK S1",
            "parent": "IKH_S1",
            "endnode": "true",
            "img": "IKH-SituationsIKH_TS1_1.dot.png",
            "role": "IKH PmK",
            "start": [
                5,
                705
            ],
            "height": 28,
            "width": 200
        },
        {
            "id": "IKH_Werkgever_S1",
            "name": "Werkgever in Diagnose situatie (Werkgever S1)",
            "color": "chartreuse",
            "href": "IKH Werkgever S1",
            "parent": "IKH_S1",
            "endnode": "true",
            "img": "IKH-SituationsIKH_TS1_1.dot.png",
            "role": "IKH Werkgever",
            "start": [
                5,
                733
            ],
            "height": 28,
            "width": 200
        },
        {
            "id": "IKH_S11",
            "name": "Uitbehandeld (S11)",
            "summary": "Zelfs als kanker bij een werknemer niet meer te genezen is kan terug aan het werk nog steeds een optie zijn.",
            "color": "white",
            "href": "IKH S11",
            "parent": "IKH_S11",
            "children": 1,
            "endnode": "true",
            "zone": "IKH Fase 3",
            "img": "IKH-SituationsIKH_TS1_1.dot.png",
            "start": [
                9,
                3
            ],
            "height": 28,
            "width": 200
        },
        {
            "id": "IKH_PmK_S11",
            "name": "Persoon met Kanker in Uitbehandeld (PmK S11)",
            "color": "red",
            "href": "IKH PmK S11",
            "parent": "IKH_S11",
            "endnode": "true",
            "img": "IKH-SituationsIKH_TS1_1.dot.png",
            "role": "IKH PmK",
            "start": [
                5,
                789
            ],
            "height": 28,
            "width": 200
        },
        {
            "id": "IKH_S12",
            "name": "Evaluatie eerste ziektejaar (S12)",
            "summary": "De eerstejaarsevaluatie is een formeel moment waarop je samen met je werkgever terugkijkt op het eerste ziektejaar en vooruit kijkt naar het volgende jaar.",
            "color": "white",
            "href": "IKH S12",
            "parent": "IKH_S12",
            "children": 1,
            "endnode": "true",
            "zone": "IKH Fase 3",
            "img": "IKH-SituationsIKH_TS1_1.dot.png",
            "start": [
                8,
                5
            ],
            "height": 8,
            "width": 5
        },
        {
            "id": "IKH_PmK_S12",
            "name": "Persoon met Kanker in Eind eerste jaar (PmK S12)",
            "color": "red",
            "href": "IKH PmK S12",
            "parent": "IKH_S12",
            "endnode": "false",
            "img": "IKH-SituationsIKH_TS1_1.dot.png",
            "role": "IKH PmK",
            "start": [
                5,
                845
            ],
            "height": 28,
            "width": 200
        },
        {
            "id": "IKH_S14",
            "name": "Relatie met de werkgever verandert (S14)",
            "summary": "In het tweede ziektejaar controleert het UWV strenger en kijkt ze mee naar jouw re-integratiedossier. De relatie met je werkgever kan hierdoor veranderen.",
            "color": "white",
            "href": "IKH S14",
            "parent": "IKH_S14",
            "children": 1,
            "endnode": "true",
            "zone": "IKH Fase 3",
            "img": "IKH-SituationsIKH_TS1_1.dot.png",
            "start": [
                6,
                5
            ],
            "height": 28,
            "width": 200
        },
        {
            "id": "IKH_PmK_S14",
            "name": "Persoon met Kanker in Relatie met de werkgever (PmK S14)",
            "color": "red",
            "href": "IKH PmK S14",
            "parent": "IKH_S14",
            "endnode": "false",
            "img": "IKH-SituationsIKH_TS1_1.dot.png",
            "role": "IKH PmK",
            "start": [
                5,
                901
            ],
            "height": 28,
            "width": 200
        },
        {
            "id": "IKH_S15",
            "name": "Tweede spoor traject (S15)",
            "summary": "In een tweede spoor traject kijk je naar mogelijkheden die er voor jou zijn om bij een andere werkgever passend werk te vinden.",
            "color": "white",
            "href": "IKH S15",
            "parent": "IKH_S15",
            "children": 1,
            "endnode": "true",
            "zone": "IKH Fase 3",
            "img": "IKH-SituationsIKH_TS1_1.dot.png",
            "start": [
                5,
                5
            ],
            "height": 28,
            "width": 200
        },
        {
            "id": "IKH_PmK_S15",
            "name": "Persoon met Kanker in Kanker in Spoor 2 traject (PmK S15)",
            "color": "red",
            "href": "IKH PmK S15",
            "parent": "IKH_S15",
            "endnode": "false",
            "img": "IKH-SituationsIKH_TS1_1.dot.png",
            "role": "IKH PmK",
            "start": [
                5,
                957
            ],
            "height": 28,
            "width": 200
        },
        {
            "id": "IKH_S3",
            "name": "Werkafspraken maken",
            "summary": "Het is nog niet duidelijk hoe jouw (behandel)traject eruit gaat zien. Welke afspraken kun je met je werkgever maken als je nog geen idee hebt welke behandelingen je gaat krijgen en wat het effect daarvan gaat zijn?",
            "color": "white",
            "href": "IKH S3",
            "parent": "IKH_S3",
            "children": 2,
            "endnode": "true",
            "zone": "IKH Fase 1",
            "img": "IKH-SituationsIKH_TS1_1.dot.png",
            "start": [
                2,
                2
            ],
            "height": 28,
            "width": 200
        },
        {
            "id": "IKH_PmK_S3",
            "name": "Persoon met Kanker in Tweede gesprek situatie (PmK S3)",
            "color": "red",
            "href": "IKH PmK S3",
            "parent": "IKH_S3",
            "endnode": "false",
            "img": "IKH-SituationsIKH_TS1_1.dot.png",
            "role": "IKH PmK",
            "start": [
                5,
                1013
            ],
            "height": 28,
            "width": 200
        },
        {
            "id": "IKH_Werkgever_S3",
            "name": "Werkgever in Tweede gesprek (Werkgever S3)",
            "color": "chartreuse",
            "href": "IKH Werkgever S3",
            "parent": "IKH_S3",
            "endnode": "true",
            "img": "IKH-SituationsIKH_TS1_1.dot.png",
            "role": "IKH Werkgever",
            "start": [
                5,
                1041
            ],
            "height": 28,
            "width": 200
        },
        {
            "id": "IKH_S4",
            "name": "Start behandeling (S4)",
            "summary": "Nadat je de diagnose kanker hebt gekregen duurt het soms nog weken voordat je behandeling start. Vaak zijn er aanvullende onderzoeken nodig en staat je agenda vol met afspraken.",
            "color": "white",
            "href": "IKH S4",
            "parent": "IKH_S4",
            "children": 1,
            "endnode": "true",
            "zone": "IKH Fase 2",
            "img": "IKH-SituationsIKH_TS1_1.dot.png",
            "start": [
                3,
                1
            ],
            "height": 28,
            "width": 200,
            "impacts": []
        },
        {
            "id": "IKH_PmK_S4",
            "name": "Persoon met Kanker in Start behandeling (PmK S4)",
            "color": "red",
            "href": "IKH PmK S4",
            "parent": "IKH_S4",
            "endnode": "false",
            "img": "IKH-SituationsIKH_TS1_1.dot.png",
            "role": "IKH PmK",
            "start": [
                5,
                1097
            ],
            "height": 28,
            "width": 200
        },
        {
            "id": "IKH_S7",
            "name": "Gesprek met verzuimcoach (S7)",
            "summary": "Werkgevers kunnen zelf bepalen hoe ze de begeleiding van zieke werknemers organiseren; er zijn werkgevers die hiervoor een speciale verzuimcoach inschakelen.",
            "color": "white",
            "href": "IKH S7",
            "parent": "IKH_S7",
            "children": 2,
            "endnode": "true",
            "zone": "IKH Fase 2",
            "img": "IKH-SituationsIKH_TS1_1.dot.png",
            "start": [
                5,
                1
            ],
            "height": 28,
            "width": 200
        },
        {
            "id": "IKH_PmK_S7",
            "name": "Persoon met Kanker in Gesprek met verzuimcoach (S7)",
            "color": "red",
            "href": "IKH PmK S7",
            "parent": "IKH_S7",
            "endnode": "false",
            "img": "IKH-SituationsIKH_TS1_1.dot.png",
            "role": "IKH PmK",
            "start": [
                5,
                1153
            ],
            "height": 28,
            "width": 200
        },
        {
            "id": "IKH_Verzuimcoach_S7",
            "name": "Verzuimcoach in Gesprek met verzuimcoach (Verzuimcoach S7)",
            "color": "lightred",
            "href": "IKH Verzuimcoach S7",
            "parent": "IKH_S7",
            "endnode": "true",
            "img": "IKH-SituationsIKH_TS1_1.dot.png",
            "role": "IKH Verzuimcoach",
            "start": [
                5,
                1181
            ],
            "height": 28,
            "width": 200
        },
        {
            "id": "IKH_TS1",
            "name": "Test (TS1)",
            "summary": "IKH TS1",
            "color": "white",
            "href": "IKH TS1",
            "parent": "IKH_TS1",
            "children": 1,
            "endnode": "true",
            "zone": "IKH TS1",
            "img": "IKH-SituationsIKH_TS1_1.dot.png",
            "start": [
                5,
                1209
            ],
            "height": 28,
            "width": 200
        },
        {
            "id": "IKH_PmK_TS1",
            "name": "IKH PmK TS1",
            "color": "red",
            "href": "IKH PmK TS1",
            "parent": "IKH_TS1",
            "endnode": "true",
            "img": "IKH-SituationsIKH_TS1_1.dot.png",
            "role": "IKH PmK",
            "start": [
                5,
                1237
            ],
            "height": 28,
            "width": 200
        },
        {
            "id": "IKH_S5",
            "name": "Ziekmelding (S5)",
            "summary": "Vanaf het moment van ziekmelden krijg je te maken met de Wet verbetering Poortwachter en heb je de verantwoordelijkheid om samen met je werkgever afspraken te maken over je re-integratieproces.",
            "color": "white",
            "href": "IKH S5",
            "parent": "IKH_S5",
            "children": 1,
            "endnode": "true",
            "zone": "IKH Fase 2",
            "img": "IKH-SituationsIKH_TS1_1.dot.png",
            "start": [
                5,
                1265
            ],
            "height": 28,
            "width": 200
        },
        {
            "id": "IKH_Werkgever_S5",
            "name": "Werkgever in ziekmelding (Werkgever S5)",
            "color": "chartreuse",
            "href": "IKH Werkgever S5",
            "parent": "IKH_S5",
            "endnode": "true",
            "img": "IKH-SituationsIKH_TS1_1.dot.png",
            "role": "IKH Werkgever",
            "start": [
                5,
                1293
            ],
            "height": 28,
            "width": 200
        }
    ],
    "edges": [
        {
            "from": "IKH_Bedrijfsarts_S13",
            "to": "IKH_Bedrijfsarts_S16",
            "color": "yellow",
            "role": "IKH Bedrijfsarts",
            "condition": ""
        },
        {
            "from": "IKH_Bedrijfsarts_S6",
            "to": "IKH_Bedrijfsarts_S13",
            "color": "yellow",
            "role": "IKH Bedrijfsarts",
            "condition": ""
        },
        {
            "from": "IKH_Collega's_S10",
            "to": "IKH_Collega's_S9",
            "color": "blue",
            "role": "IKH Collega's",
            "condition": ""
        },
        {
            "from": "IKH_Collega's_S2",
            "to": "IKH_Collega's_S8",
            "color": "blue",
            "role": "IKH Collega's",
            "condition": ""
        },
        {
            "from": "IKH_Collega's_S2",
            "to": "IKH_Collega's_S10",
            "color": "blue",
            "role": "IKH Collega's",
            "condition": ""
        },
        {
            "from": "IKH_Collega's_S8",
            "to": "IKH_Collega's_S9",
            "color": "blue",
            "role": "IKH Collega's",
            "condition": ""
        },
        {
            "from": "IKH_Collega's_S9",
            "to": "IKH_Collega's_S17",
            "color": "blue",
            "role": "IKH Collega's",
            "condition": ""
        },
        {
            "from": "IKH_PmK_S10",
            "to": "IKH_PmK_S11",
            "color": "red",
            "role": "IKH PmK",
            "condition": ""
        },
        {
            "from": "IKH_PmK_S12",
            "to": "IKH_PmK_S13",
            "color": "red",
            "role": "IKH PmK",
            "condition": ""
        },
        {
            "from": "IKH_PmK_S13",
            "to": "IKH_PmK_S14",
            "color": "red",
            "role": "IKH PmK",
            "condition": ""
        },
        {
            "from": "IKH_PmK_S14",
            "to": "IKH_PmK_S15",
            "color": "red",
            "role": "IKH PmK",
            "condition": "\"nl\" != \"be\""
        },
        {
            "from": "IKH_PmK_S14",
            "to": "IKH_PmK_S16",
            "color": "red",
            "role": "IKH PmK",
            "condition": "\"nl\" == \"be\""
        },
        {
            "from": "IKH_PmK_S15",
            "to": "IKH_PmK_S16",
            "color": "red",
            "role": "IKH PmK",
            "condition": "\"nl\" !=\"be\""
        },
        {
            "from": "IKH_PmK_S16",
            "to": "IKH_PmK_S17",
            "color": "red",
            "role": "IKH PmK",
            "condition": ""
        },
        {
            "from": "IKH_PmK_S2",
            "to": "IKH_PmK_S4",
            "color": "red",
            "role": "IKH PmK",
            "condition": ""
        },
        {
            "from": "IKH_PmK_S4",
            "to": "IKH_PmK_S6",
            "color": "red",
            "role": "IKH PmK",
            "condition": ""
        },
        {
            "from": "IKH_PmK_S6",
            "to": "IKH_PmK_S7",
            "color": "red",
            "role": "IKH PmK",
            "condition": ""
        },
        {
            "from": "IKH_PmK_S7",
            "to": "IKH_PmK_S9",
            "color": "red",
            "role": "IKH PmK",
            "condition": ""
        },
        {
            "from": "IKH_PmK_S7",
            "to": "IKH_PmK_S10",
            "color": "red",
            "role": "IKH PmK",
            "condition": ""
        },
        {
            "from": "IKH_PmK_S7",
            "to": "IKH_PmK_S8",
            "color": "red",
            "role": "IKH PmK",
            "condition": ""
        },
        {
            "from": "IKH_PmK_S8",
            "to": "IKH_PmK_S9",
            "color": "red",
            "role": "IKH PmK",
            "condition": ""
        },
        {
            "from": "IKH_PmK_S8",
            "to": "IKH_PmK_S10",
            "color": "red",
            "role": "IKH PmK",
            "condition": ""
        },
        {
            "from": "IKH_PmK_S9",
            "to": "IKH_PmK_S12",
            "color": "red",
            "role": "IKH PmK",
            "condition": ""
        },
        {
            "from": "IKH_PmK_S1",
            "to": "IKH_PmK_TS1",
            "color": "red",
            "role": "IKH PmK",
            "condition": ""
        },
        {
            "from": "IKH_PmK_S1",
            "to": "IKH_PmK_S3",
            "color": "red",
            "role": "IKH PmK",
            "condition": ""
        },
        {
            "from": "IKH_PmK_S3",
            "to": "IKH_PmK_S2",
            "color": "red",
            "role": "IKH PmK",
            "condition": ""
        },
        {
            "from": "IKH_Werkgever_S1",
            "to": "IKH_Werkgever_S3",
            "color": "chartreuse",
            "role": "IKH Werkgever",
            "condition": ""
        }
    ],
    "themes": [
        {
            "theme-code": "finance",
            "name": "Financieel",
            "icon": "<svg id=\"Laag_1\" data-name=\"Laag 1\" xmlns=\"http://www.w3.org/2000/svg\" viewBox=\"0 0 141.7 135.8\"><defs><style>.cls-1{fill:#634e42;}.cls-2{fill:#fff;}</style></defs><ellipse class=\"cls-1\" cx=\"70.9\" cy=\"67.9\" rx=\"70.9\" ry=\"67.9\"/><path class=\"cls-2\" d=\"M131.2,151.3q1.8,18,12,18a13.7,13.7,0,0,0,7-1.7c2.1-1.2,4.2-3.9,6.1-8.2s2.4-4.6,3.3-5.3a4.6,4.6,0,0,1,2.9-1,6.9,6.9,0,0,1,4.9,1.7,6.6,6.6,0,0,1,1.8,4.9c0,4.9-2.5,9.4-7.6,13.6s-11.1,6.2-18.3,6.2a24.6,24.6,0,0,1-17.5-7c-5-4.6-8-11.7-9-21.2h-6.6c-.7,0-1-.4-1-1.3a7.8,7.8,0,0,1,1-3.1c.7-1.3,1.2-2,1.7-2h4.5v-1.8c0-1.4.1-3.6.2-6.3h-6.4c-.7,0-1-.5-1-1.3a8.2,8.2,0,0,1,1-3.2c.7-1.3,1.2-1.9,1.7-1.9h5.2c2.3-17.5,10.9-26.2,25.8-26.2a29.8,29.8,0,0,1,17,4.9c4.7,3.2,7.1,7.3,7.1,12.1a5.7,5.7,0,0,1-1.7,4.2,5.4,5.4,0,0,1-4,1.7,5.4,5.4,0,0,1-3.9-1.3,13.1,13.1,0,0,1-2.5-4,15.4,15.4,0,0,0-3.6-5.5c-1.4-1.3-3.8-1.9-7.1-1.9s-6.8,1.3-8.9,3.9-3.4,6.6-4,12.1h16.9c.7,0,1,.4,1,1.3a6.5,6.5,0,0,1-1,3.2c-.6,1.3-1.2,1.9-1.7,1.9H130.9v4.9a25.5,25.5,0,0,0,.1,3.2h17.3c.7,0,1,.5,1,1.3a6.5,6.5,0,0,1-1,3.3c-.6,1.2-1.2,1.8-1.7,1.8Z\" transform=\"translate(-71.2 -74)\"/></svg>"
        },
        {
            "theme-code": "theme 1",
            "name": "Vermoeidheid",
            "icon": "<svg id=\"Laag_1\" data-name=\"Laag 1\" xmlns=\"http://www.w3.org/2000/svg\" viewBox=\"0 0 141.7 135.8\"><defs><style>.cls-1{fill:#634e42;}.cls-2{fill:#fff;}</style></defs><ellipse class=\"cls-1\" cx=\"70.9\" cy=\"67.9\" rx=\"70.9\" ry=\"67.9\"/><path class=\"cls-2\" d=\"M198.1,132.2h-6.6a.8.8,0,0,0-.9.8v17.1a.9.9,0,0,0,.9.9h6.6a.9.9,0,0,0,.9-.9V133A.8.8,0,0,0,198.1,132.2Z\" transform=\"translate(-71.2 -74)\"/><path class=\"cls-2\" d=\"M184,163.6H96.9a7.7,7.7,0,0,1-7.9-7.5v-29a7.6,7.6,0,0,1,7.9-7.5H184a7.7,7.7,0,0,1,7.9,7.5v29A7.8,7.8,0,0,1,184,163.6ZM96.9,123.5a3.7,3.7,0,0,0-3.8,3.6v29a3.7,3.7,0,0,0,3.8,3.6H184a3.6,3.6,0,0,0,3.7-3.6v-29a3.6,3.6,0,0,0-3.7-3.6Z\" transform=\"translate(-71.2 -74)\"/><path class=\"cls-2\" d=\"M107.3,154.7A2.3,2.3,0,0,1,105,157H99.4a2.4,2.4,0,0,1-2.4-2.3V129a2.3,2.3,0,0,1,2.4-2.2H105a2.2,2.2,0,0,1,2.3,2.2Z\" transform=\"translate(-71.2 -74)\"/><path class=\"cls-2\" d=\"M120.5,154.7a2.3,2.3,0,0,1-2.3,2.3h-5.7a2.4,2.4,0,0,1-2.3-2.3V129a2.3,2.3,0,0,1,2.3-2.2h5.7a2.2,2.2,0,0,1,2.3,2.2Z\" transform=\"translate(-71.2 -74)\"/><path class=\"cls-2\" d=\"M133.5,154.7a2.4,2.4,0,0,1-2.4,2.3h-5.6a2.3,2.3,0,0,1-2.3-2.3V129a2.2,2.2,0,0,1,2.3-2.2h5.6a2.3,2.3,0,0,1,2.4,2.2Z\" transform=\"translate(-71.2 -74)\"/></svg>"
        },
        {
            "theme-code": "theme 2",
            "name": "Angst",
            "icon": "<svg id=\"Laag_1\" data-name=\"Laag 1\" xmlns=\"http://www.w3.org/2000/svg\" viewBox=\"0 0 63.1 60.4\"><defs><style>.cls-1{fill:#1d1d1b;}.cls-2{fill:#fff;}</style></defs><ellipse class=\"cls-1\" cx=\"31.5\" cy=\"30.2\" rx=\"31.5\" ry=\"30.2\"/><path class=\"cls-2\" d=\"M158.2,137.8c0-17.5-12.2-19.2-16.2-19.2s-15.9,1.7-15.9,19.2-1.2,22.8-1.2,22.8c4,3.5,6.9,0,9.7,0s4,1.7,7.5,1.7,5.3-1.7,7.7-1.7,5.5,3.5,9.5,0C159.3,160.6,158.2,156.6,158.2,137.8Z\" transform=\"translate(-110.6 -111.4)\"/><ellipse class=\"cls-1\" cx=\"36.2\" cy=\"21.3\" rx=\"3.3\" ry=\"4.9\"/><ellipse class=\"cls-1\" cx=\"27.1\" cy=\"21.3\" rx=\"3.3\" ry=\"4.9\"/></svg>"
        }
    ],
    "theme_edges": {
        "IKH_S5": [
            "finance",
            "theme 1"
        ],
        "IKH_S4": [
            "finance",
            "theme 1"
        ],
        "IKH_S13": [
            "finance",
            "theme 2"
        ],
        "IKH_S1": [
            "theme 1"
        ],
        "IKH_S2": [
            "theme 1"
        ],
        "IKH_S3": [
            "theme 1"
        ],
        "IKH_S6": [
            "theme 1"
        ],
        "IKH_S7": [
            "theme 1"
        ],
        "IKH_S8": [
            "theme 1"
        ],
        "IKH_S9": [
            "theme 1"
        ],
        "IKH_S10": [
            "theme 1"
        ],
        "IKH_S11": [
            "theme 2"
        ],
        "IKH_S12": [
            "theme 2"
        ],
        "IKH_S14": [
            "theme 2"
        ],
        "IKH_S15": [
            "theme 2"
        ],
        "IKH_S16": [
            "theme 2"
        ],
        "IKH_S17": [
            "theme 2"
        ],
        "IKH_S18": [
            "theme 2"
        ],
        "IKH_S19": [
            "theme 2"
        ]
    },
    "situations": [
        {
            "id": "IKH_S13",
            "url": "IKH S13",
            "name": "Gesprek bedrijfsarts eerste jaar ziek (S13)",
            "roles": [
                {
                    "id": "IKH_Bedrijfsarts",
                    "url": "IKH Bedrijfsarts",
                    "name": "Bedrijfsarts",
                    "color": "yellow"
                },
                {
                    "id": "IKH_PmK",
                    "url": "IKH PmK",
                    "name": "Persoon met Kanker",
                    "color": "red"
                }
            ],
            "identities": [
                {
                    "id": "IKH_Identity_PmK_S13",
                    "url": "IKH Identity PmK S13",
                    "name": "Persoon met kanker (Identity S13)",
                    "role": "IKH_PmK"
                },
                {
                    "id": "IKH_Identity_Bedrijfsarts_S13",
                    "url": "IKH Identity Bedrijfsarts S13",
                    "name": "Bedrijfsarts (Identity S13)",
                    "role": "IKH_Bedrijfsarts"
                }
            ],
            "situations": [
                {
                    "id": "IKH_S12",
                    "url": "IKH S12",
                    "name": "Evaluatie eerste ziektejaar (S12)"
                },
                {
                    "id": "IKH_S16",
                    "url": "IKH S16",
                    "name": "WIA keuring (S16)"
                },
                {
                    "id": "IKH_S14",
                    "url": "IKH S14",
                    "name": "Relatie met de werkgever verandert (S14)"
                },
                {
                    "id": "IKH_S6",
                    "url": "IKH S6",
                    "name": "Gesprek bedrijfsarts - arboarts (S6)"
                }
            ],
            "nodes": [
                {
                    "dialogs": [],
                    "id": "act1",
                    "name": "activity 1",
                    "sub_acts": [
                        "IKH PmK Do something S13"
                    ],
                    "sub_activities": [
                        {
                            "id": "IKH_PmK_Do_something_S13",
                            "url": "IKH PmK Do something S13",
                            "name": "IKH PmK Do something S13",
                            "role": "IKH_PmK"
                        }
                    ]
                },
                {
                    "dialogs": [],
                    "id": "act2",
                    "name": "activity 2",
                    "sub_acts": [
                        "IKH Bedrijfsarts Do something S13"
                    ],
                    "sub_activities": [
                        {
                            "id": "IKH_Bedrijfsarts_Do_something_S13",
                            "url": "IKH Bedrijfsarts Do something S13",
                            "name": "IKH Bedrijfsarts Do something S13",
                            "role": "IKH_Bedrijfsarts"
                        }
                    ]
                }
            ],
            "edges": [
                {
                    "from": "act1",
                    "to": "IKH_S14",
                    "role": "IKH_PmK"
                },
                {
                    "from": "IKH_S12",
                    "to": "act1",
                    "role": "IKH_PmK"
                },
                {
                    "from": "act2",
                    "to": "IKH_S16",
                    "role": "IKH_Bedrijfsarts"
                },
                {
                    "from": "IKH_S6",
                    "to": "act2",
                    "role": "IKH_Bedrijfsarts"
                }
            ]
        },
        {
            "id": "IKH_Bedrijfsarts_S13",
            "url": "IKH Bedrijfsarts S13",
            "name": "Bedrijfsarts in Gesprek bedrijfsarts eerste jaar ziek (Bedrijfsarts S13)",
            "roles": [],
            "identities": [],
            "situations": [],
            "nodes": [],
            "edges": []
        },
        {
            "id": "IKH_PmK_S13",
            "url": "IKH PmK S13",
            "name": "Persoon met Kanker in Gesprek bedrijfsarts eerste jaar ziek (PmK S13)",
            "roles": [],
            "identities": [],
            "situations": [],
            "nodes": [],
            "edges": []
        },
        {
            "id": "IKH_S16",
            "url": "IKH S16",
            "name": "WIA keuring (S16)",
            "roles": [
                {
                    "id": "IKH_Bedrijfsarts",
                    "url": "IKH Bedrijfsarts",
                    "name": "Bedrijfsarts",
                    "color": "yellow"
                },
                {
                    "id": "IKH_PmK",
                    "url": "IKH PmK",
                    "name": "Persoon met Kanker",
                    "color": "red"
                }
            ],
            "identities": [
                {
                    "id": "IKH_Identity_PmK_S16",
                    "url": "IKH Identity PmK S16",
                    "name": "Persoon met kanker (Identity S16)",
                    "role": "IKH_PmK"
                },
                {
                    "id": "IKH_Identity_Bedrijfsarts_S16",
                    "url": "IKH Identity Bedrijfsarts S16",
                    "name": "Bedrijfsarts (Identity S16)",
                    "role": "IKH_Bedrijfsarts"
                }
            ],
            "situations": [
                {
                    "id": "IKH_S17",
                    "url": "IKH S17",
                    "name": "Afsluiting re-integratietraject (S17)"
                },
                {
                    "id": "IKH_S15",
                    "url": "IKH S15",
                    "name": "Tweede spoor traject (S15)"
                },
                {
                    "id": "IKH_S14",
                    "url": "IKH S14",
                    "name": "Relatie met de werkgever verandert (S14)"
                },
                {
                    "id": "IKH_S13",
                    "url": "IKH S13",
                    "name": "Gesprek bedrijfsarts eerste jaar ziek (S13)"
                }
            ],
            "nodes": [
                {
                    "dialogs": [],
                    "id": "act1",
                    "name": "activity 1",
                    "sub_acts": [
                        "IKH PmK Do something S16"
                    ],
                    "sub_activities": [
                        {
                            "id": "IKH_PmK_Do_something_S16",
                            "url": "IKH PmK Do something S16",
                            "name": "IKH PmK Do something S16",
                            "role": "IKH_PmK"
                        }
                    ]
                },
                {
                    "dialogs": [],
                    "id": "act2",
                    "name": "activity 2",
                    "sub_acts": [
                        "IKH Bedrijfsarts Do something S16"
                    ],
                    "sub_activities": [
                        {
                            "id": "IKH_Bedrijfsarts_Do_something_S16",
                            "url": "IKH Bedrijfsarts Do something S16",
                            "name": "IKH Bedrijfsarts Do something S16",
                            "role": "IKH_Bedrijfsarts"
                        }
                    ]
                }
            ],
            "edges": [
                {
                    "from": "act1",
                    "to": "IKH_S17",
                    "role": "IKH_PmK"
                },
                {
                    "from": "IKH_S14",
                    "to": "act1",
                    "role": "IKH_PmK"
                },
                {
                    "from": "IKH_S15",
                    "to": "act1",
                    "role": "IKH_PmK"
                },
                {
                    "from": "IKH_S13",
                    "to": "act2",
                    "role": "IKH_Bedrijfsarts"
                }
            ]
        },
        {
            "id": "IKH_Bedrijfsarts_S16",
            "url": "IKH Bedrijfsarts S16",
            "name": "Bedrijfsarts in Twee jaar ziek - WIA keuring (Bedrijfsarts S16)",
            "roles": [],
            "identities": [],
            "situations": [],
            "nodes": [],
            "edges": []
        },
        {
            "id": "IKH_PmK_S16",
            "url": "IKH PmK S16",
            "name": "Persoon met Kanker in Twee jaar ziek - WIA keuring (PmK S16)",
            "roles": [],
            "identities": [],
            "situations": [],
            "nodes": [],
            "edges": []
        },
        {
            "id": "IKH_S6",
            "url": "IKH S6",
            "name": "Gesprek bedrijfsarts - arboarts (S6)",
            "roles": [
                {
                    "id": "IKH_Bedrijfsarts",
                    "url": "IKH Bedrijfsarts",
                    "name": "Bedrijfsarts",
                    "color": "yellow"
                },
                {
                    "id": "IKH_PmK",
                    "url": "IKH PmK",
                    "name": "Persoon met Kanker",
                    "color": "red"
                }
            ],
            "identities": [
                {
                    "id": "IKH_Identity_PmK_S6",
                    "url": "IKH Identity PmK S6",
                    "name": "Persoon met kanker (Identity S6)",
                    "role": "IKH_PmK"
                },
                {
                    "id": "IKH_Identity_Bedrijfsarts_S6",
                    "url": "IKH Identity Bedrijfsarts S6",
                    "name": "Bedrijfsarts (Identity S6)",
                    "role": "IKH_Bedrijfsarts"
                }
            ],
            "situations": [
                {
                    "id": "IKH_S4",
                    "url": "IKH S4",
                    "name": "Start behandeling (S4)"
                },
                {
                    "id": "IKH_S7",
                    "url": "IKH S7",
                    "name": "Gesprek met verzuimcoach (S7)"
                },
                {
                    "id": "IKH_S13",
                    "url": "IKH S13",
                    "name": "Gesprek bedrijfsarts eerste jaar ziek (S13)"
                }
            ],
            "nodes": [
                {
                    "dialogs": [],
                    "id": "act1",
                    "name": "activity 1",
                    "sub_acts": [
                        "IKH PmK Do something S6"
                    ],
                    "sub_activities": [
                        {
                            "id": "IKH_PmK_Do_something_S6",
                            "url": "IKH PmK Do something S6",
                            "name": "IKH PmK Do something S6",
                            "role": "IKH_PmK"
                        }
                    ]
                },
                {
                    "dialogs": [],
                    "id": "act2",
                    "name": "activity 2",
                    "sub_acts": [
                        "IKH Bedrijfsarts Do something S6"
                    ],
                    "sub_activities": [
                        {
                            "id": "IKH_Bedrijfsarts_Do_something_S6",
                            "url": "IKH Bedrijfsarts Do something S6",
                            "name": "IKH Bedrijfsarts Do something S6",
                            "role": "IKH_Bedrijfsarts"
                        }
                    ]
                }
            ],
            "edges": [
                {
                    "from": "act1",
                    "to": "IKH_S7",
                    "role": "IKH_PmK"
                },
                {
                    "from": "IKH_S4",
                    "to": "act1",
                    "role": "IKH_PmK"
                },
                {
                    "from": "act2",
                    "to": "IKH_S13",
                    "role": "IKH_Bedrijfsarts"
                }
            ]
        },
        {
            "id": "IKH_Bedrijfsarts_S6",
            "url": "IKH Bedrijfsarts S6",
            "name": "Bedrijfsarts in Gesprek bedrijfsarts - arboarts (Bedrijfsarts S6)",
            "roles": [],
            "identities": [],
            "situations": [],
            "nodes": [],
            "edges": []
        },
        {
            "id": "IKH_PmK_S6",
            "url": "IKH PmK S6",
            "name": "Persoon met Kanker in Gesprek bedrijfsarts - arboarts (PmK S6)",
            "roles": [],
            "identities": [],
            "situations": [],
            "nodes": [],
            "edges": []
        },
        {
            "id": "IKH_S10",
            "url": "IKH S10",
            "name": "Deels terug aan het werk (S10)",
            "roles": [
                {
                    "id": "IKH_Collega's",
                    "url": "IKH Collega's",
                    "name": "Collega's",
                    "color": "blue"
                },
                {
                    "id": "IKH_PmK",
                    "url": "IKH PmK",
                    "name": "Persoon met Kanker",
                    "color": "red"
                }
            ],
            "identities": [
                {
                    "id": "IKH_Identity_PmK_S10",
                    "url": "IKH Identity PmK S10",
                    "name": "Persoon met kanker (Identity S10)",
                    "role": "IKH_PmK"
                },
                {
                    "id": "IKH_Identity_Collega's_S10",
                    "url": "IKH Identity Collega's S10",
                    "name": "Collega's (Identity S10)",
                    "role": "IKH_Collega's"
                }
            ],
            "situations": [
                {
                    "id": "IKH_S2",
                    "url": "IKH S2",
                    "name": "Collega's informeren"
                },
                {
                    "id": "IKH_S8",
                    "url": "IKH S8",
                    "name": "Einde behandeling (S8)"
                },
                {
                    "id": "IKH_S9",
                    "url": "IKH S9",
                    "name": "Terug naar eigen functie (S9)"
                },
                {
                    "id": "IKH_S7",
                    "url": "IKH S7",
                    "name": "Gesprek met verzuimcoach (S7)"
                },
                {
                    "id": "IKH_S11",
                    "url": "IKH S11",
                    "name": "Uitbehandeld (S11)"
                }
            ],
            "nodes": [
                {
                    "dialogs": [],
                    "id": "act1",
                    "name": "activity 1",
                    "sub_acts": [
                        "IKH PmK Do something S10"
                    ],
                    "sub_activities": [
                        {
                            "id": "IKH_PmK_Do_something_S10",
                            "url": "IKH PmK Do something S10",
                            "name": "IKH PmK Do something S10",
                            "role": "IKH_PmK"
                        }
                    ]
                },
                {
                    "dialogs": [],
                    "id": "act2",
                    "name": "activity 2",
                    "sub_acts": [
                        "IKH Collega's Do something S10"
                    ],
                    "sub_activities": [
                        {
                            "id": "IKH_Collega's_Do_something_S10",
                            "url": "IKH Collega's Do something S10",
                            "name": "IKH Collega's Do something S10",
                            "role": "IKH_Collega's"
                        }
                    ]
                }
            ],
            "edges": [
                {
                    "from": "act1",
                    "to": "IKH_S11",
                    "role": "IKH_PmK"
                },
                {
                    "from": "IKH_S7",
                    "to": "act1",
                    "role": "IKH_PmK"
                },
                {
                    "from": "IKH_S8",
                    "to": "act1",
                    "role": "IKH_PmK"
                },
                {
                    "from": "act2",
                    "to": "IKH_S9",
                    "role": "IKH_Collega's"
                },
                {
                    "from": "IKH_S2",
                    "to": "act2",
                    "role": "IKH_Collega's"
                }
            ]
        },
        {
            "id": "IKH_Collega's_S10",
            "url": "IKH Collega's S10",
            "name": "Collega's in Deels terug naar het werk (Collega's S10)",
            "roles": [],
            "identities": [],
            "situations": [],
            "nodes": [],
            "edges": []
        },
        {
            "id": "IKH_PmK_S10",
            "url": "IKH PmK S10",
            "name": "Persoon met Kanker in Deels terug naar het werk (PmK S10)",
            "roles": [],
            "identities": [],
            "situations": [],
            "nodes": [],
            "edges": []
        },
        {
            "id": "IKH_S17",
            "url": "IKH S17",
            "name": "Afsluiting re-integratietraject (S17)",
            "roles": [
                {
                    "id": "IKH_Collega's",
                    "url": "IKH Collega's",
                    "name": "Collega's",
                    "color": "blue"
                },
                {
                    "id": "IKH_PmK",
                    "url": "IKH PmK",
                    "name": "Persoon met Kanker",
                    "color": "red"
                }
            ],
            "identities": [
                {
                    "id": "IKH_Identity_PmK_S17",
                    "url": "IKH Identity PmK S17",
                    "name": "Persoon met kanker (Identity S17)",
                    "role": "IKH_PmK"
                },
                {
                    "id": "IKH_Identity_Collega's_S17",
                    "url": "IKH Identity Collega's S17",
                    "name": "Collega's (Identity S17)",
                    "role": "IKH_Collega's"
                }
            ],
            "situations": [
                {
                    "id": "IKH_S16",
                    "url": "IKH S16",
                    "name": "WIA keuring (S16)"
                },
                {
                    "id": "IKH_S9",
                    "url": "IKH S9",
                    "name": "Terug naar eigen functie (S9)"
                }
            ],
            "nodes": [
                {
                    "dialogs": [],
                    "id": "act1",
                    "name": "activity 1",
                    "sub_acts": [
                        "IKH PmK Do something S17"
                    ],
                    "sub_activities": [
                        {
                            "id": "IKH_PmK_Do_something_S17",
                            "url": "IKH PmK Do something S17",
                            "name": "IKH PmK Do something S17",
                            "role": "IKH_PmK"
                        }
                    ]
                },
                {
                    "dialogs": [],
                    "id": "act2",
                    "name": "activity 2",
                    "sub_acts": [
                        "IKH Collega's Do something S17"
                    ],
                    "sub_activities": [
                        {
                            "id": "IKH_Collega's_Do_something_S17",
                            "url": "IKH Collega's Do something S17",
                            "name": "IKH Collega's Do something S17",
                            "role": "IKH_Collega's"
                        }
                    ]
                }
            ],
            "edges": [
                {
                    "from": "IKH_S16",
                    "to": "act1",
                    "role": "IKH_PmK"
                },
                {
                    "from": "IKH_S9",
                    "to": "act2",
                    "role": "IKH_Collega's"
                }
            ]
        },
        {
            "id": "IKH_Collega's_S17",
            "url": "IKH Collega's S17",
            "name": "Collega's in Na het traject (Collega's S17)",
            "roles": [],
            "identities": [],
            "situations": [],
            "nodes": [],
            "edges": []
        },
        {
            "id": "IKH_PmK_S17",
            "url": "IKH PmK S17",
            "name": "Persoon met Kanker in Na het traject (PmK S17)",
            "roles": [],
            "identities": [],
            "situations": [],
            "nodes": [],
            "edges": []
        },
        {
            "id": "IKH_S2",
            "url": "IKH S2",
            "name": "Collega's informeren",
            "roles": [
                {
                    "id": "IKH_Collega's",
                    "url": "IKH Collega's",
                    "name": "Collega's",
                    "color": "blue"
                },
                {
                    "id": "IKH_PmK",
                    "url": "IKH PmK",
                    "name": "Persoon met Kanker",
                    "color": "red"
                }
            ],
            "identities": [
                {
                    "id": "IKH_Identity_PmK_S2",
                    "url": "IKH Identity PmK S2",
                    "name": "Persoon met kanker (Identity S2)",
                    "role": "IKH_PmK"
                },
                {
                    "id": "IKH_Identity_Collega's_S2",
                    "url": "IKH Identity Collega's S2",
                    "name": "Collega's (Identity S2)",
                    "role": "IKH_Collega's"
                }
            ],
            "situations": [
                {
                    "id": "IKH_S3_1",
                    "url": "IKH S3-1",
                    "name": "Tweede gesprek werkgever - werknemer (S3-1)"
                },
                {
                    "id": "IKH_S4",
                    "url": "IKH S4",
                    "name": "Start behandeling (S4)"
                },
                {
                    "id": "IKH_S8",
                    "url": "IKH S8",
                    "name": "Einde behandeling (S8)"
                },
                {
                    "id": "IKH_S10",
                    "url": "IKH S10",
                    "name": "Deels terug aan het werk (S10)"
                }
            ],
            "nodes": [
                {
                    "dialogs": [],
                    "id": "act1",
                    "name": "activity 1",
                    "sub_acts": [
                        "IKH PmK Do something S2"
                    ],
                    "sub_activities": [
                        {
                            "id": "IKH_PmK_Do_something_S2",
                            "url": "IKH PmK Do something S2",
                            "name": "IKH PmK Do something S2",
                            "role": "IKH_PmK"
                        }
                    ]
                },
                {
                    "dialogs": [],
                    "id": "act2",
                    "name": "activity 2",
                    "sub_acts": [
                        "IKH Collega's Do something S2"
                    ],
                    "sub_activities": [
                        {
                            "id": "IKH_Collega's_Do_something_S2",
                            "url": "IKH Collega's Do something S2",
                            "name": "IKH Collega's Do something S2",
                            "role": "IKH_Collega's"
                        }
                    ]
                }
            ],
            "edges": [
                {
                    "from": "act1",
                    "to": "IKH_S4",
                    "role": "IKH_PmK"
                },
                {
                    "from": "IKH_S3_1",
                    "to": "act1",
                    "role": "IKH_PmK"
                },
                {
                    "from": "act2",
                    "to": "IKH_S8",
                    "role": "IKH_Collega's"
                },
                {
                    "from": "act2",
                    "to": "IKH_S10",
                    "role": "IKH_Collega's"
                }
            ]
        },
        {
            "id": "IKH_Collega's_S2",
            "url": "IKH Collega's S2",
            "name": "Collega's in Collega's informeren (Collega's S2)",
            "roles": [],
            "identities": [],
            "situations": [],
            "nodes": [],
            "edges": []
        },
        {
            "id": "IKH_PmK_S2",
            "url": "IKH PmK S2",
            "name": "Persoon met Kanker in Collega's informeren (PmK S2)",
            "roles": [],
            "identities": [],
            "situations": [],
            "nodes": [],
            "edges": []
        },
        {
            "id": "IKH_S8",
            "url": "IKH S8",
            "name": "Einde behandeling (S8)",
            "roles": [
                {
                    "id": "IKH_Collega's",
                    "url": "IKH Collega's",
                    "name": "Collega's",
                    "color": "blue"
                },
                {
                    "id": "IKH_PmK",
                    "url": "IKH PmK",
                    "name": "Persoon met Kanker",
                    "color": "red"
                }
            ],
            "identities": [
                {
                    "id": "IKH_Identity_PmK_S8",
                    "url": "IKH Identity PmK S8",
                    "name": "Persoon met kanker (Identity S8)",
                    "role": "IKH_PmK"
                },
                {
                    "id": "IKH_Identity_Collega's_S8",
                    "url": "IKH Identity Collega's S8",
                    "name": "Collega's (Identity S8)",
                    "role": "IKH_Collega's"
                }
            ],
            "situations": [
                {
                    "id": "IKH_S2",
                    "url": "IKH S2",
                    "name": "Collega's informeren"
                },
                {
                    "id": "IKH_S9",
                    "url": "IKH S9",
                    "name": "Terug naar eigen functie (S9)"
                },
                {
                    "id": "IKH_S7",
                    "url": "IKH S7",
                    "name": "Gesprek met verzuimcoach (S7)"
                },
                {
                    "id": "IKH_S10",
                    "url": "IKH S10",
                    "name": "Deels terug aan het werk (S10)"
                }
            ],
            "nodes": [
                {
                    "dialogs": [],
                    "id": "act1",
                    "name": "activity 1",
                    "sub_acts": [
                        "IKH PmK Do something S8"
                    ],
                    "sub_activities": [
                        {
                            "id": "IKH_PmK_Do_something_S8",
                            "url": "IKH PmK Do something S8",
                            "name": "IKH PmK Do something S8",
                            "role": "IKH_PmK"
                        }
                    ]
                },
                {
                    "dialogs": [],
                    "id": "act2",
                    "name": "activity 2",
                    "sub_acts": [
                        "IKH Collega's Do something S8"
                    ],
                    "sub_activities": [
                        {
                            "id": "IKH_Collega's_Do_something_S8",
                            "url": "IKH Collega's Do something S8",
                            "name": "IKH Collega's Do something S8",
                            "role": "IKH_Collega's"
                        }
                    ]
                }
            ],
            "edges": [
                {
                    "from": "act1",
                    "to": "IKH_S9",
                    "role": "IKH_PmK"
                },
                {
                    "from": "act1",
                    "to": "IKH_S10",
                    "role": "IKH_PmK"
                },
                {
                    "from": "IKH_S7",
                    "to": "act1",
                    "role": "IKH_PmK"
                },
                {
                    "from": "act2",
                    "to": "IKH_S9",
                    "role": "IKH_Collega's"
                },
                {
                    "from": "IKH_S2",
                    "to": "act2",
                    "role": "IKH_Collega's"
                }
            ]
        },
        {
            "id": "IKH_Collega's_S8",
            "url": "IKH Collega's S8",
            "name": "Collega's in Einde behandeling (Collega's S8)",
            "roles": [],
            "identities": [],
            "situations": [],
            "nodes": [],
            "edges": []
        },
        {
            "id": "IKH_PmK_S8",
            "url": "IKH PmK S8",
            "name": "Persoon met Kanker in Einde behandeling (PmK S8)",
            "roles": [],
            "identities": [],
            "situations": [],
            "nodes": [],
            "edges": []
        },
        {
            "id": "IKH_S9",
            "url": "IKH S9",
            "name": "Terug naar eigen functie (S9)",
            "roles": [
                {
                    "id": "IKH_Collega's",
                    "url": "IKH Collega's",
                    "name": "Collega's",
                    "color": "blue"
                },
                {
                    "id": "IKH_PmK",
                    "url": "IKH PmK",
                    "name": "Persoon met Kanker",
                    "color": "red"
                }
            ],
            "identities": [
                {
                    "id": "IKH_Identity_PmK_S9",
                    "url": "IKH Identity PmK S9",
                    "name": "Persoon met kanker (Identity S9)",
                    "role": "IKH_PmK"
                },
                {
                    "id": "IKH_Identity_Collega's_S9",
                    "url": "IKH Identity Collega's S9",
                    "name": "Collega's (Identity S9)",
                    "role": "IKH_Collega's"
                }
            ],
            "situations": [
                {
                    "id": "IKH_S17",
                    "url": "IKH S17",
                    "name": "Afsluiting re-integratietraject (S17)"
                },
                {
                    "id": "IKH_S8",
                    "url": "IKH S8",
                    "name": "Einde behandeling (S8)"
                },
                {
                    "id": "IKH_S7",
                    "url": "IKH S7",
                    "name": "Gesprek met verzuimcoach (S7)"
                },
                {
                    "id": "IKH_S10",
                    "url": "IKH S10",
                    "name": "Deels terug aan het werk (S10)"
                },
                {
                    "id": "IKH_S12",
                    "url": "IKH S12",
                    "name": "Evaluatie eerste ziektejaar (S12)"
                }
            ],
            "nodes": [
                {
                    "dialogs": [],
                    "id": "act1",
                    "name": "activity 1",
                    "sub_acts": [
                        "IKH PmK Do something S9"
                    ],
                    "sub_activities": [
                        {
                            "id": "IKH_PmK_Do_something_S9",
                            "url": "IKH PmK Do something S9",
                            "name": "IKH PmK Do something S9",
                            "role": "IKH_PmK"
                        }
                    ]
                },
                {
                    "dialogs": [],
                    "id": "act2",
                    "name": "activity 2",
                    "sub_acts": [
                        "IKH Collega's Do something S9"
                    ],
                    "sub_activities": [
                        {
                            "id": "IKH_Collega's_Do_something_S9",
                            "url": "IKH Collega's Do something S9",
                            "name": "IKH Collega's Do something S9",
                            "role": "IKH_Collega's"
                        }
                    ]
                }
            ],
            "edges": [
                {
                    "from": "act1",
                    "to": "IKH_S12",
                    "role": "IKH_PmK"
                },
                {
                    "from": "IKH_S7",
                    "to": "act1",
                    "role": "IKH_PmK"
                },
                {
                    "from": "IKH_S8",
                    "to": "act1",
                    "role": "IKH_PmK"
                },
                {
                    "from": "act2",
                    "to": "IKH_S17",
                    "role": "IKH_Collega's"
                },
                {
                    "from": "IKH_S10",
                    "to": "act2",
                    "role": "IKH_Collega's"
                },
                {
                    "from": "IKH_S8",
                    "to": "act2",
                    "role": "IKH_Collega's"
                }
            ]
        },
        {
            "id": "IKH_Collega's_S9",
            "url": "IKH Collega's S9",
            "name": "Collega's in Terug naar het werk (Collega's S9)",
            "roles": [],
            "identities": [],
            "situations": [],
            "nodes": [],
            "edges": []
        },
        {
            "id": "IKH_PmK_S9",
            "url": "IKH PmK S9",
            "name": "Persoon met Kanker in Terug naar het werk (PmK S9)",
            "roles": [],
            "identities": [],
            "situations": [],
            "nodes": [],
            "edges": []
        },
        {
            "id": "IKH_PmK_S1",
            "url": "IKH PmK S1",
            "name": "Persoon met Kanker in Diagnose situatie (PmK S1)",
            "roles": [],
            "identities": [],
            "situations": [],
            "nodes": [],
            "edges": []
        },
        {
            "id": "IKH_Werkgever_S1",
            "url": "IKH Werkgever S1",
            "name": "Werkgever in Diagnose situatie (Werkgever S1)",
            "roles": [],
            "identities": [],
            "situations": [],
            "nodes": [],
            "edges": []
        },
        {
            "id": "IKH_S11",
            "url": "IKH S11",
            "name": "Uitbehandeld (S11)",
            "roles": [
                {
                    "id": "IKH_PmK",
                    "url": "IKH PmK",
                    "name": "Persoon met Kanker",
                    "color": "red"
                }
            ],
            "identities": [
                {
                    "id": "IKH_Identity_PmK_S11",
                    "url": "IKH Identity PmK S11",
                    "name": "Persoon met kanker (Identity S11)",
                    "role": "IKH_PmK"
                }
            ],
            "situations": [
                {
                    "id": "IKH_S10",
                    "url": "IKH S10",
                    "name": "Deels terug aan het werk (S10)"
                }
            ],
            "nodes": [
                {
                    "dialogs": [],
                    "id": "act1",
                    "name": "activity 1",
                    "sub_acts": [
                        "IKH PmK Do something S11"
                    ],
                    "sub_activities": [
                        {
                            "id": "IKH_PmK_Do_something_S11",
                            "url": "IKH PmK Do something S11",
                            "name": "IKH PmK Do something S11",
                            "role": "IKH_PmK"
                        }
                    ]
                }
            ],
            "edges": [
                {
                    "from": "IKH_S10",
                    "to": "act1",
                    "role": "IKH_PmK"
                }
            ]
        },
        {
            "id": "IKH_PmK_S11",
            "url": "IKH PmK S11",
            "name": "Persoon met Kanker in Uitbehandeld (PmK S11)",
            "roles": [],
            "identities": [],
            "situations": [],
            "nodes": [],
            "edges": []
        },
        {
            "id": "IKH_S12",
            "url": "IKH S12",
            "name": "Evaluatie eerste ziektejaar (S12)",
            "roles": [
                {
                    "id": "IKH_PmK",
                    "url": "IKH PmK",
                    "name": "Persoon met Kanker",
                    "color": "red"
                }
            ],
            "identities": [
                {
                    "id": "IKH_Identity_PmK_S12",
                    "url": "IKH Identity PmK S12",
                    "name": "Persoon met kanker (Identity S12)",
                    "role": "IKH_PmK"
                }
            ],
            "situations": [
                {
                    "id": "IKH_S9",
                    "url": "IKH S9",
                    "name": "Terug naar eigen functie (S9)"
                },
                {
                    "id": "IKH_S13",
                    "url": "IKH S13",
                    "name": "Gesprek bedrijfsarts eerste jaar ziek (S13)"
                }
            ],
            "nodes": [
                {
                    "dialogs": [],
                    "id": "act1",
                    "name": "activity 1",
                    "sub_acts": [
                        "IKH PmK Do something S12"
                    ],
                    "sub_activities": [
                        {
                            "id": "IKH_PmK_Do_something_S12",
                            "url": "IKH PmK Do something S12",
                            "name": "IKH PmK Do something S12",
                            "role": "IKH_PmK"
                        }
                    ]
                }
            ],
            "edges": [
                {
                    "from": "act1",
                    "to": "IKH_S13",
                    "role": "IKH_PmK"
                },
                {
                    "from": "IKH_S9",
                    "to": "act1",
                    "role": "IKH_PmK"
                }
            ]
        },
        {
            "id": "IKH_PmK_S12",
            "url": "IKH PmK S12",
            "name": "Persoon met Kanker in Eind eerste jaar (PmK S12)",
            "roles": [],
            "identities": [],
            "situations": [],
            "nodes": [],
            "edges": []
        },
        {
            "id": "IKH_S14",
            "url": "IKH S14",
            "name": "Relatie met de werkgever verandert (S14)",
            "roles": [
                {
                    "id": "IKH_PmK",
                    "url": "IKH PmK",
                    "name": "Persoon met Kanker",
                    "color": "red"
                }
            ],
            "identities": [
                {
                    "id": "IKH_Identity_PmK_S14",
                    "url": "IKH Identity PmK S14",
                    "name": "Persoon met kanker (Identity S14)",
                    "role": "IKH_PmK"
                }
            ],
            "situations": [
                {
                    "id": "IKH_S16",
                    "url": "IKH S16",
                    "name": "WIA keuring (S16)"
                },
                {
                    "id": "IKH_S15",
                    "url": "IKH S15",
                    "name": "Tweede spoor traject (S15)"
                },
                {
                    "id": "IKH_S13",
                    "url": "IKH S13",
                    "name": "Gesprek bedrijfsarts eerste jaar ziek (S13)"
                }
            ],
            "nodes": [
                {
                    "dialogs": [],
                    "id": "act1",
                    "name": "activity 1",
                    "sub_acts": [
                        "IKH PmK Do something S14"
                    ],
                    "sub_activities": [
                        {
                            "id": "IKH_PmK_Do_something_S14",
                            "url": "IKH PmK Do something S14",
                            "name": "IKH PmK Do something S14",
                            "role": "IKH_PmK"
                        }
                    ]
                }
            ],
            "edges": [
                {
                    "from": "act1",
                    "to": "IKH_S15",
                    "role": "IKH_PmK"
                },
                {
                    "from": "act1",
                    "to": "IKH_S16",
                    "role": "IKH_PmK"
                },
                {
                    "from": "IKH_S13",
                    "to": "act1",
                    "role": "IKH_PmK"
                }
            ]
        },
        {
            "id": "IKH_PmK_S14",
            "url": "IKH PmK S14",
            "name": "Persoon met Kanker in Relatie met de werkgever (PmK S14)",
            "roles": [],
            "identities": [],
            "situations": [],
            "nodes": [],
            "edges": []
        },
        {
            "id": "IKH_S15",
            "url": "IKH S15",
            "name": "Tweede spoor traject (S15)",
            "roles": [
                {
                    "id": "IKH_PmK",
                    "url": "IKH PmK",
                    "name": "Persoon met Kanker",
                    "color": "red"
                }
            ],
            "identities": [
                {
                    "id": "IKH_Identity_PmK_S15",
                    "url": "IKH Identity PmK S15",
                    "name": "Persoon met kanker (Identity S15)",
                    "role": "IKH_PmK"
                }
            ],
            "situations": [
                {
                    "id": "IKH_S16",
                    "url": "IKH S16",
                    "name": "WIA keuring (S16)"
                },
                {
                    "id": "IKH_S14",
                    "url": "IKH S14",
                    "name": "Relatie met de werkgever verandert (S14)"
                }
            ],
            "nodes": [
                {
                    "dialogs": [],
                    "id": "act1",
                    "name": "activity 1",
                    "sub_acts": [
                        "IKH PmK Do something S15"
                    ],
                    "sub_activities": [
                        {
                            "id": "IKH_PmK_Do_something_S15",
                            "url": "IKH PmK Do something S15",
                            "name": "IKH PmK Do something S15",
                            "role": "IKH_PmK"
                        }
                    ]
                }
            ],
            "edges": [
                {
                    "from": "act1",
                    "to": "IKH_S16",
                    "role": "IKH_PmK"
                },
                {
                    "from": "IKH_S14",
                    "to": "act1",
                    "role": "IKH_PmK"
                }
            ]
        },
        {
            "id": "IKH_PmK_S15",
            "url": "IKH PmK S15",
            "name": "Persoon met Kanker in Kanker in Spoor 2 traject (PmK S15)",
            "roles": [],
            "identities": [],
            "situations": [],
            "nodes": [],
            "edges": []
        },
        {
            "id": "IKH_S3",
            "url": "IKH S3",
            "name": "Werkafspraken maken",
            "roles": [
                {
                    "id": "IKH_PmK",
                    "url": "IKH PmK",
                    "name": "Persoon met Kanker",
                    "color": "red"
                },
                {
                    "id": "IKH_Werkgever",
                    "url": "IKH Werkgever",
                    "name": "Werkgever",
                    "color": "chartreuse"
                }
            ],
            "identities": [
                {
                    "id": "IKH_Identity_Werkgever_S3_1",
                    "url": "IKH Identity Werkgever S3-1",
                    "name": "Werkgever (Identity S3-1)",
                    "role": "IKH_Werkgever"
                },
                {
                    "id": "IKH_Identity_PmK_S3_1",
                    "url": "IKH Identity PmK S3-1",
                    "name": "Persoon met kanker (Identity S3-1)",
                    "role": "IKH_PmK"
                }
            ],
            "situations": [
                {
                    "id": "IKH_S2",
                    "url": "IKH S2",
                    "name": "Collega's informeren"
                },
                {
                    "id": "IKH_S1_2",
                    "url": "IKH S1-2",
                    "name": "Werkgever informeren (S1-2)"
                }
            ],
            "nodes": [
                {
                    "dialogs": [
                        {
                            "id": "IKH_Dialog_1_S3_1",
                            "url": "IKH Dialog 1 S3-1",
                            "name": "IKH Dialog 1 S3-1",
                            "identities": [
                                "IKH_Identity_Werkgever_S3_1",
                                "IKH_Identity_PmK_S3_1"
                            ]
                        },
                        {
                            "id": "IKH_Dialog_2_S3_1",
                            "url": "IKH Dialog 2 S3-1",
                            "name": "IKH Dialog 2 S3-1",
                            "identities": [
                                "IKH_Identity_Werkgever_S3_1",
                                "IKH_Identity_PmK_S3_1"
                            ]
                        },
                        {
                            "id": "IKH_Dialog_3_S3_1",
                            "url": "IKH Dialog 3 S3-1",
                            "name": "IKH Dialog 3 S3-1",
                            "identities": [
                                "IKH_Identity_Werkgever_S3_1",
                                "IKH_Identity_PmK_S3_1"
                            ]
                        }
                    ],
                    "id": "act1",
                    "name": "activity 1",
                    "sub_acts": [
                        "IKH Werkgever Interact S3-1",
                        "IKH PmK Interact S3-1"
                    ],
                    "sub_activities": [
                        {
                            "id": "IKH_Werkgever_Interact_S3_1",
                            "url": "IKH Werkgever Interact S3-1",
                            "name": "IKH Werkgever Interact S3-1",
                            "role": "IKH_Werkgever"
                        },
                        {
                            "id": "IKH_PmK_Interact_S3_1",
                            "url": "IKH PmK Interact S3-1",
                            "name": "IKH PmK Interact S3-1",
                            "role": "IKH_PmK"
                        }
                    ]
                }
            ],
            "edges": [
                {
                    "from": "IKH_S1_2",
                    "to": "act1",
                    "role": "IKH_Werkgever"
                },
                {
                    "from": "act1",
                    "to": "IKH_S2",
                    "role": "IKH_PmK"
                },
                {
                    "from": "IKH_S1_2",
                    "to": "act1",
                    "role": "IKH_PmK"
                }
            ]
        },
        {
            "id": "IKH_PmK_S3",
            "url": "IKH PmK S3",
            "name": "Persoon met Kanker in Tweede gesprek situatie (PmK S3)",
            "roles": [],
            "identities": [],
            "situations": [],
            "nodes": [],
            "edges": []
        },
        {
            "id": "IKH_Werkgever_S3",
            "url": "IKH Werkgever S3",
            "name": "Werkgever in Tweede gesprek (Werkgever S3)",
            "roles": [],
            "identities": [],
            "situations": [],
            "nodes": [],
            "edges": []
        },
        {
            "id": "IKH_S4",
            "url": "IKH S4",
            "name": "Start behandeling (S4)",
            "roles": [
                {
                    "id": "IKH_PmK",
                    "url": "IKH PmK",
                    "name": "Persoon met Kanker",
                    "color": "red"
                }
            ],
            "identities": [
                {
                    "id": "IKH_Identity_PmK_S4",
                    "url": "IKH Identity PmK S4",
                    "name": "Persoon met kanker (Identity S4)",
                    "role": "IKH_PmK"
                }
            ],
            "situations": [
                {
                    "id": "IKH_S2",
                    "url": "IKH S2",
                    "name": "Collega's informeren"
                },
                {
                    "id": "IKH_S6",
                    "url": "IKH S6",
                    "name": "Gesprek bedrijfsarts - arboarts (S6)"
                }
            ],
            "nodes": [
                {
                    "dialogs": [],
                    "id": "act1",
                    "name": "activity 1",
                    "sub_acts": [
                        "IKH PmK Do something S4"
                    ],
                    "sub_activities": [
                        {
                            "id": "IKH_PmK_Do_something_S4",
                            "url": "IKH PmK Do something S4",
                            "name": "IKH PmK Do something S4",
                            "role": "IKH_PmK"
                        }
                    ]
                }
            ],
            "edges": [
                {
                    "from": "act1",
                    "to": "IKH_S6",
                    "role": "IKH_PmK"
                },
                {
                    "from": "IKH_S2",
                    "to": "act1",
                    "role": "IKH_PmK"
                }
            ]
        },
        {
            "id": "IKH_PmK_S4",
            "url": "IKH PmK S4",
            "name": "Persoon met Kanker in Start behandeling (PmK S4)",
            "roles": [],
            "identities": [],
            "situations": [],
            "nodes": [],
            "edges": []
        },
        {
            "id": "IKH_S7",
            "url": "IKH S7",
            "name": "Gesprek met verzuimcoach (S7)",
            "roles": [
                {
                    "id": "IKH_PmK",
                    "url": "IKH PmK",
                    "name": "Persoon met Kanker",
                    "color": "red"
                },
                {
                    "id": "IKH_Verzuimcoach",
                    "url": "IKH Verzuimcoach",
                    "name": "Verzuimcoach",
                    "color": "lightred"
                }
            ],
            "identities": [
                {
                    "id": "IKH_Identity_Verzuimcoach_S7",
                    "url": "IKH Identity Verzuimcoach S7",
                    "name": "Verzuimcoach (identity S7)",
                    "role": "IKH_Verzuimcoach"
                },
                {
                    "id": "IKH_Identity_PmK_S7",
                    "url": "IKH Identity PmK S7",
                    "name": "Persoon met kanker (Identity S7)",
                    "role": "IKH_PmK"
                }
            ],
            "situations": [
                {
                    "id": "IKH_S6",
                    "url": "IKH S6",
                    "name": "Gesprek bedrijfsarts - arboarts (S6)"
                },
                {
                    "id": "IKH_S8",
                    "url": "IKH S8",
                    "name": "Einde behandeling (S8)"
                },
                {
                    "id": "IKH_S9",
                    "url": "IKH S9",
                    "name": "Terug naar eigen functie (S9)"
                },
                {
                    "id": "IKH_S10",
                    "url": "IKH S10",
                    "name": "Deels terug aan het werk (S10)"
                }
            ],
            "nodes": [
                {
                    "dialogs": [],
                    "id": "act1",
                    "name": "activity 1",
                    "sub_acts": [
                        "IKH Verzuimcoach Do something S7"
                    ],
                    "sub_activities": [
                        {
                            "id": "IKH_Verzuimcoach_Do_something_S7",
                            "url": "IKH Verzuimcoach Do something S7",
                            "name": "IKH Verzuimcoach Do something S7",
                            "role": "IKH_Verzuimcoach"
                        }
                    ]
                },
                {
                    "dialogs": [],
                    "id": "act2",
                    "name": "activity 2",
                    "sub_acts": [
                        "IKH PmK Do something S7"
                    ],
                    "sub_activities": [
                        {
                            "id": "IKH_PmK_Do_something_S7",
                            "url": "IKH PmK Do something S7",
                            "name": "IKH PmK Do something S7",
                            "role": "IKH_PmK"
                        }
                    ]
                }
            ],
            "edges": [
                {
                    "from": "act2",
                    "to": "IKH_S9",
                    "role": "IKH_PmK"
                },
                {
                    "from": "act2",
                    "to": "IKH_S10",
                    "role": "IKH_PmK"
                },
                {
                    "from": "act2",
                    "to": "IKH_S8",
                    "role": "IKH_PmK"
                },
                {
                    "from": "IKH_S6",
                    "to": "act2",
                    "role": "IKH_PmK"
                }
            ]
        },
        {
            "id": "IKH_PmK_S7",
            "url": "IKH PmK S7",
            "name": "Persoon met Kanker in Gesprek met verzuimcoach (S7)",
            "roles": [],
            "identities": [],
            "situations": [],
            "nodes": [],
            "edges": []
        },
        {
            "id": "IKH_Verzuimcoach_S7",
            "url": "IKH Verzuimcoach S7",
            "name": "Verzuimcoach in Gesprek met verzuimcoach (Verzuimcoach S7)",
            "roles": [],
            "identities": [],
            "situations": [],
            "nodes": [],
            "edges": []
        },
        {
            "id": "IKH_TS1",
            "url": "IKH TS1",
            "name": "Test (TS1)",
            "roles": [
                {
                    "id": "IKH_PmK",
                    "url": "IKH PmK",
                    "name": "Persoon met Kanker",
                    "color": "red"
                }
            ],
            "identities": [
                {
                    "id": "IKH_Identity_PmK_TS1_1",
                    "url": "IKH Identity PmK TS1-1",
                    "name": "Persoon met kanker (Identity TS1-1)",
                    "role": "IKH_PmK"
                }
            ],
            "situations": [
                {
                    "id": "IKH_S1_2",
                    "url": "IKH S1-2",
                    "name": "Werkgever informeren (S1-2)"
                }
            ],
            "nodes": [
                {
                    "dialogs": [],
                    "id": "act1",
                    "name": "activity 1",
                    "sub_acts": [
                        "IKH PmK Do something TS1-1"
                    ],
                    "sub_activities": [
                        {
                            "id": "IKH_PmK_Do_something_TS1_1",
                            "url": "IKH PmK Do something TS1-1",
                            "name": "IKH PmK Do something TS1-1",
                            "role": "IKH_PmK"
                        }
                    ]
                }
            ],
            "edges": [
                {
                    "from": "IKH_S1_2",
                    "to": "act1",
                    "role": "IKH_PmK"
                }
            ]
        },
        {
            "id": "IKH_PmK_TS1",
            "url": "IKH PmK TS1",
            "name": "IKH PmK TS1",
            "roles": [],
            "identities": [],
            "situations": [],
            "nodes": [],
            "edges": []
        },
        {
            "id": "IKH_S5",
            "url": "IKH S5",
            "name": "Ziekmelding (S5)",
            "roles": [
                {
                    "id": "IKH_Werkgever",
                    "url": "IKH Werkgever",
                    "name": "Werkgever",
                    "color": "chartreuse"
                }
            ],
            "identities": [
                {
                    "id": "IKH_Identity_Werkgever_S5_1",
                    "url": "IKH Identity Werkgever S5-1",
                    "name": "Werkgever (Identity S5-1)",
                    "role": "IKH_Werkgever"
                }
            ],
            "situations": [],
            "nodes": [],
            "edges": []
        },
        {
            "id": "IKH_Werkgever_S5",
            "url": "IKH Werkgever S5",
            "name": "Werkgever in ziekmelding (Werkgever S5)",
            "roles": [],
            "identities": [],
            "situations": [],
            "nodes": [],
            "edges": []
        }
    ],
    "translations": {
        "role": "Rol",
        "roles": "Rollen",
        "theme": "Thema",
        "themes": "Thema's",
        "phase": "Fase",
        "phases": "Fasen",
        "loading": "Laden pagina",
        "read_more": "lees meer",
        "theme 2": "Angst",
        "theme 1": "Vermoeidheid",
        "finance": "Financieel",
        "toon": "Toon",
        "read_more_about": "Lees hier meer over de"
    }
} 
